// Jest Snapshot v1, https://goo.gl/fbAQLP

exports[`Header tests Snapshot matches 1`] = `
ShallowWrapper {
  Symbol(enzyme.__root__): [Circular],
  Symbol(enzyme.__unrendered__): <Header />,
  Symbol(enzyme.__renderer__): Object {
    "batchedUpdates": [Function],
    "getNode": [Function],
    "render": [Function],
    "simulateError": [Function],
    "simulateEvent": [Function],
    "unmount": [Function],
  },
  Symbol(enzyme.__node__): Object {
    "instance": null,
    "key": undefined,
    "nodeType": "host",
    "props": Object {
      "children": <center>
        <h2>
          Header 
          Black Books
        </h2>
      </center>,
      "className": "row header",
      "onClick": [Function],
      "style": Object {
        "backgroundColor": "black",
        "color": "white",
      },
    },
    "ref": null,
    "rendered": Object {
      "instance": null,
      "key": undefined,
      "nodeType": "host",
      "props": Object {
        "children": <h2>
          Header 
          Black Books
        </h2>,
      },
      "ref": null,
      "rendered": Object {
        "instance": null,
        "key": undefined,
        "nodeType": "host",
        "props": Object {
          "children": Array [
            "Header ",
            "Black Books",
          ],
        },
        "ref": null,
        "rendered": Array [
          "Header ",
          "Black Books",
        ],
        "type": "h2",
      },
      "type": "center",
    },
    "type": "div",
  },
  Symbol(enzyme.__nodes__): Array [
    Object {
      "instance": null,
      "key": undefined,
      "nodeType": "host",
      "props": Object {
        "children": <center>
          <h2>
            Header 
            Black Books
          </h2>
        </center>,
        "className": "row header",
        "onClick": [Function],
        "style": Object {
          "backgroundColor": "black",
          "color": "white",
        },
      },
      "ref": null,
      "rendered": Object {
        "instance": null,
        "key": undefined,
        "nodeType": "host",
        "props": Object {
          "children": <h2>
            Header 
            Black Books
          </h2>,
        },
        "ref": null,
        "rendered": Object {
          "instance": null,
          "key": undefined,
          "nodeType": "host",
          "props": Object {
            "children": Array [
              "Header ",
              "Black Books",
            ],
          },
          "ref": null,
          "rendered": Array [
            "Header ",
            "Black Books",
          ],
          "type": "h2",
        },
        "type": "center",
      },
      "type": "div",
    },
  ],
  Symbol(enzyme.__options__): Object {
    "adapter": ReactSixteenAdapter {
      "options": Object {
        "enableComponentDidUpdateOnSetState": true,
        "lifecycles": Object {
          "componentDidUpdate": Object {
            "onSetState": true,
          },
          "getDerivedStateFromProps": true,
          "getSnapshotBeforeUpdate": true,
          "setState": Object {
            "skipsComponentDidUpdateOnNullish": true,
          },
        },
      },
    },
  },
}
`;
